gcr.io/iree-oss/base@sha256:ea076afa9ec854ed75d0608a08d64e4bc5e1ad2933d497912b4034553d4a56ac
gcr.io/iree-oss/swiftshader@sha256:9a83eb64f53c354772fbe53d4de6669eea7acb39d373b134f66b17fbdce22936
gcr.io/iree-oss/samples@sha256:c57ab23ad4b1e1241be1228030a7d4a6b729b9ed5ee1c126d1e9098c1dc84902
gcr.io/iree-oss/frontends@sha256:c720dc8788a49c5a3cbd6b947cd37360ac9160dac043170dd513c8eafb3c5818
gcr.io/iree-oss/frontends-nvidia@sha256:05c1694aaa71bfc778472582c14fa95a4490398224a39d0d6837ed3012d2c4c8
gcr.io/iree-oss/frontends-swiftshader@sha256:4327fef0ed53c8658f052d145f2aa8ce395c29f48fb075df78638fd3ce3603e5
gcr.io/iree-oss/gradle-android@sha256:bbe2b4576f2a6d8df9d84c42e0fbd3c644edf9512ab3d8fe14ffd887f7ff526c
gcr.io/iree-oss/riscv@sha256:a4da7dbebd4fac1cc2f674eb2a49d718a21d3604e39976b673814864afc44e3d
gcr.io/iree-oss/nvidia@sha256:c1053062515d6fe9becc38305a70dc3fba486068513e2102844b407488fb5629
gcr.io/iree-oss/emscripten@sha256:2d99a86203c4de572a8928892cbfcd41d8e16ca432c53ad01ed33d2fb991ad78
gcr.io/iree-oss/android@sha256:a98f4d2299257c311ecf182e3ecbdf24f228ce55d22ed9f6b229a92c96a16c86
